2013.08.03 01:19 B C:\Users\Owner\Documents\Documents\Church\clcnet\public_html\members\system\jquery-ui\development-bundle\demos\slider\colorpicker.html <-- 216.69.181.177 /public_html/members/system/jquery-ui/development-bundle/demos/slider colorpicker.html
2013.08.03 01:19 B C:\Users\Owner\Documents\Documents\Church\clcnet\public_html\members\system\jquery-ui\development-bundle\demos\slider\default.html <-- 216.69.181.177 /public_html/members/system/jquery-ui/development-bundle/demos/slider default.html
2013.08.03 01:19 B C:\Users\Owner\Documents\Documents\Church\clcnet\public_html\members\system\jquery-ui\development-bundle\demos\slider\hotelrooms.html <-- 216.69.181.177 /public_html/members/system/jquery-ui/development-bundle/demos/slider hotelrooms.html
2013.08.03 01:19 B C:\Users\Owner\Documents\Documents\Church\clcnet\public_html\members\system\jquery-ui\development-bundle\demos\slider\index.html <-- 216.69.181.177 /public_html/members/system/jquery-ui/development-bundle/demos/slider index.html
2013.08.03 01:19 B C:\Users\Owner\Documents\Documents\Church\clcnet\public_html\members\system\jquery-ui\development-bundle\demos\slider\multiple-vertical.html <-- 216.69.181.177 /public_html/members/system/jquery-ui/development-bundle/demos/slider multiple-vertical.html
2013.08.03 01:19 B C:\Users\Owner\Documents\Documents\Church\clcnet\public_html\members\system\jquery-ui\development-bundle\demos\slider\range-vertical.html <-- 216.69.181.177 /public_html/members/system/jquery-ui/development-bundle/demos/slider range-vertical.html
2013.08.03 01:19 B C:\Users\Owner\Documents\Documents\Church\clcnet\public_html\members\system\jquery-ui\development-bundle\demos\slider\range.html <-- 216.69.181.177 /public_html/members/system/jquery-ui/development-bundle/demos/slider range.html
2013.08.03 01:19 B C:\Users\Owner\Documents\Documents\Church\clcnet\public_html\members\system\jquery-ui\development-bundle\demos\slider\rangemax.html <-- 216.69.181.177 /public_html/members/system/jquery-ui/development-bundle/demos/slider rangemax.html
2013.08.03 01:19 B C:\Users\Owner\Documents\Documents\Church\clcnet\public_html\members\system\jquery-ui\development-bundle\demos\slider\rangemin.html <-- 216.69.181.177 /public_html/members/system/jquery-ui/development-bundle/demos/slider rangemin.html
2013.08.03 01:19 B C:\Users\Owner\Documents\Documents\Church\clcnet\public_html\members\system\jquery-ui\development-bundle\demos\slider\side-scroll.html <-- 216.69.181.177 /public_html/members/system/jquery-ui/development-bundle/demos/slider side-scroll.html
2013.08.03 01:19 B C:\Users\Owner\Documents\Documents\Church\clcnet\public_html\members\system\jquery-ui\development-bundle\demos\slider\slider-vertical.html <-- 216.69.181.177 /public_html/members/system/jquery-ui/development-bundle/demos/slider slider-vertical.html
2013.08.03 01:19 B C:\Users\Owner\Documents\Documents\Church\clcnet\public_html\members\system\jquery-ui\development-bundle\demos\slider\steps.html <-- 216.69.181.177 /public_html/members/system/jquery-ui/development-bundle/demos/slider steps.html
2013.08.03 01:19 B C:\Users\Owner\Documents\Documents\Church\clcnet\public_html\members\system\jquery-ui\development-bundle\demos\slider\tabs.html <-- 216.69.181.177 /public_html/members/system/jquery-ui/development-bundle/demos/slider tabs.html
2013.08.03 01:29 B C:\Users\Owner\Documents\Documents\Church\clcnet\public_html\members\system\jquery-ui\development-bundle\demos\slider\colorpicker.html --> clc-server.org /public_html/members/system/jquery-ui/development-bundle/demos/slider colorpicker.html
2013.08.03 01:29 B C:\Users\Owner\Documents\Documents\Church\clcnet\public_html\members\system\jquery-ui\development-bundle\demos\slider\default.html --> clc-server.org /public_html/members/system/jquery-ui/development-bundle/demos/slider default.html
2013.08.03 01:29 B C:\Users\Owner\Documents\Documents\Church\clcnet\public_html\members\system\jquery-ui\development-bundle\demos\slider\hotelrooms.html --> clc-server.org /public_html/members/system/jquery-ui/development-bundle/demos/slider hotelrooms.html
2013.08.03 01:29 B C:\Users\Owner\Documents\Documents\Church\clcnet\public_html\members\system\jquery-ui\development-bundle\demos\slider\index.html --> clc-server.org /public_html/members/system/jquery-ui/development-bundle/demos/slider index.html
2013.08.03 01:29 B C:\Users\Owner\Documents\Documents\Church\clcnet\public_html\members\system\jquery-ui\development-bundle\demos\slider\multiple-vertical.html --> clc-server.org /public_html/members/system/jquery-ui/development-bundle/demos/slider multiple-vertical.html
2013.08.03 01:29 B C:\Users\Owner\Documents\Documents\Church\clcnet\public_html\members\system\jquery-ui\development-bundle\demos\slider\range-vertical.html --> clc-server.org /public_html/members/system/jquery-ui/development-bundle/demos/slider range-vertical.html
2013.08.03 01:29 B C:\Users\Owner\Documents\Documents\Church\clcnet\public_html\members\system\jquery-ui\development-bundle\demos\slider\range.html --> clc-server.org /public_html/members/system/jquery-ui/development-bundle/demos/slider range.html
2013.08.03 01:29 B C:\Users\Owner\Documents\Documents\Church\clcnet\public_html\members\system\jquery-ui\development-bundle\demos\slider\rangemax.html --> clc-server.org /public_html/members/system/jquery-ui/development-bundle/demos/slider rangemax.html
2013.08.03 01:29 B C:\Users\Owner\Documents\Documents\Church\clcnet\public_html\members\system\jquery-ui\development-bundle\demos\slider\rangemin.html --> clc-server.org /public_html/members/system/jquery-ui/development-bundle/demos/slider rangemin.html
2013.08.03 01:29 B C:\Users\Owner\Documents\Documents\Church\clcnet\public_html\members\system\jquery-ui\development-bundle\demos\slider\side-scroll.html --> clc-server.org /public_html/members/system/jquery-ui/development-bundle/demos/slider side-scroll.html
2013.08.03 01:29 B C:\Users\Owner\Documents\Documents\Church\clcnet\public_html\members\system\jquery-ui\development-bundle\demos\slider\slider-vertical.html --> clc-server.org /public_html/members/system/jquery-ui/development-bundle/demos/slider slider-vertical.html
2013.08.03 01:29 B C:\Users\Owner\Documents\Documents\Church\clcnet\public_html\members\system\jquery-ui\development-bundle\demos\slider\steps.html --> clc-server.org /public_html/members/system/jquery-ui/development-bundle/demos/slider steps.html
2013.08.03 01:29 B C:\Users\Owner\Documents\Documents\Church\clcnet\public_html\members\system\jquery-ui\development-bundle\demos\slider\tabs.html --> clc-server.org /public_html/members/system/jquery-ui/development-bundle/demos/slider tabs.html
