2013.08.03 01:14 B C:\Users\Owner\Documents\Documents\Church\clcnet\public_html\members\system\application\default.css <-- 216.69.181.177 /public_html/members/system/application default.css
2013.08.03 01:14 B C:\Users\Owner\Documents\Documents\Church\clcnet\public_html\members\system\application\fileupgrade.php <-- 216.69.181.177 /public_html/members/system/application fileupgrade.php
2013.08.03 01:14 B C:\Users\Owner\Documents\Documents\Church\clcnet\public_html\members\system\application\index.html <-- 216.69.181.177 /public_html/members/system/application index.html
2013.08.03 01:22 B C:\Users\Owner\Documents\Documents\Church\clcnet\public_html\members\system\application\default.css --> clc-server.org /public_html/members/system/application default.css
2013.08.03 01:22 B C:\Users\Owner\Documents\Documents\Church\clcnet\public_html\members\system\application\fileupgrade.php --> clc-server.org /public_html/members/system/application fileupgrade.php
2013.08.03 01:22 B C:\Users\Owner\Documents\Documents\Church\clcnet\public_html\members\system\application\index.html --> clc-server.org /public_html/members/system/application index.html
