2013.08.03 01:18 B C:\Users\Owner\Documents\Documents\Church\clcnet\public_html\members\system\jquery-ui\development-bundle\demos\dialog\animated.html <-- 216.69.181.177 /public_html/members/system/jquery-ui/development-bundle/demos/dialog animated.html
2013.08.03 01:18 B C:\Users\Owner\Documents\Documents\Church\clcnet\public_html\members\system\jquery-ui\development-bundle\demos\dialog\default.html <-- 216.69.181.177 /public_html/members/system/jquery-ui/development-bundle/demos/dialog default.html
2013.08.03 01:18 B C:\Users\Owner\Documents\Documents\Church\clcnet\public_html\members\system\jquery-ui\development-bundle\demos\dialog\index.html <-- 216.69.181.177 /public_html/members/system/jquery-ui/development-bundle/demos/dialog index.html
2013.08.03 01:18 B C:\Users\Owner\Documents\Documents\Church\clcnet\public_html\members\system\jquery-ui\development-bundle\demos\dialog\modal-confirmation.html <-- 216.69.181.177 /public_html/members/system/jquery-ui/development-bundle/demos/dialog modal-confirmation.html
2013.08.03 01:18 B C:\Users\Owner\Documents\Documents\Church\clcnet\public_html\members\system\jquery-ui\development-bundle\demos\dialog\modal-form.html <-- 216.69.181.177 /public_html/members/system/jquery-ui/development-bundle/demos/dialog modal-form.html
2013.08.03 01:18 B C:\Users\Owner\Documents\Documents\Church\clcnet\public_html\members\system\jquery-ui\development-bundle\demos\dialog\modal-message.html <-- 216.69.181.177 /public_html/members/system/jquery-ui/development-bundle/demos/dialog modal-message.html
2013.08.03 01:18 B C:\Users\Owner\Documents\Documents\Church\clcnet\public_html\members\system\jquery-ui\development-bundle\demos\dialog\modal.html <-- 216.69.181.177 /public_html/members/system/jquery-ui/development-bundle/demos/dialog modal.html
2013.08.03 01:28 B C:\Users\Owner\Documents\Documents\Church\clcnet\public_html\members\system\jquery-ui\development-bundle\demos\dialog\animated.html --> clc-server.org /public_html/members/system/jquery-ui/development-bundle/demos/dialog animated.html
2013.08.03 01:28 B C:\Users\Owner\Documents\Documents\Church\clcnet\public_html\members\system\jquery-ui\development-bundle\demos\dialog\default.html --> clc-server.org /public_html/members/system/jquery-ui/development-bundle/demos/dialog default.html
2013.08.03 01:28 B C:\Users\Owner\Documents\Documents\Church\clcnet\public_html\members\system\jquery-ui\development-bundle\demos\dialog\index.html --> clc-server.org /public_html/members/system/jquery-ui/development-bundle/demos/dialog index.html
2013.08.03 01:28 B C:\Users\Owner\Documents\Documents\Church\clcnet\public_html\members\system\jquery-ui\development-bundle\demos\dialog\modal-confirmation.html --> clc-server.org /public_html/members/system/jquery-ui/development-bundle/demos/dialog modal-confirmation.html
2013.08.03 01:28 B C:\Users\Owner\Documents\Documents\Church\clcnet\public_html\members\system\jquery-ui\development-bundle\demos\dialog\modal-form.html --> clc-server.org /public_html/members/system/jquery-ui/development-bundle/demos/dialog modal-form.html
2013.08.03 01:28 B C:\Users\Owner\Documents\Documents\Church\clcnet\public_html\members\system\jquery-ui\development-bundle\demos\dialog\modal-message.html --> clc-server.org /public_html/members/system/jquery-ui/development-bundle/demos/dialog modal-message.html
2013.08.03 01:28 B C:\Users\Owner\Documents\Documents\Church\clcnet\public_html\members\system\jquery-ui\development-bundle\demos\dialog\modal.html --> clc-server.org /public_html/members/system/jquery-ui/development-bundle/demos/dialog modal.html
