2013.08.03 01:20 B C:\Users\Owner\Documents\Documents\Church\clcnet\public_html\members\system\jquery-ui\development-bundle\themes\mint-choc\images\ui-anim_basic_16x16.gif <-- 216.69.181.177 /public_html/members/system/jquery-ui/development-bundle/themes/mint-choc/images ui-anim_basic_16x16.gif
2013.08.03 01:20 B C:\Users\Owner\Documents\Documents\Church\clcnet\public_html\members\system\jquery-ui\development-bundle\themes\mint-choc\images\ui-bg_flat_0_aaaaaa_40x100.png <-- 216.69.181.177 /public_html/members/system/jquery-ui/development-bundle/themes/mint-choc/images ui-bg_flat_0_aaaaaa_40x100.png
2013.08.03 01:20 B C:\Users\Owner\Documents\Documents\Church\clcnet\public_html\members\system\jquery-ui\development-bundle\themes\mint-choc\images\ui-bg_glass_15_5f391b_1x400.png <-- 216.69.181.177 /public_html/members/system/jquery-ui/development-bundle/themes/mint-choc/images ui-bg_glass_15_5f391b_1x400.png
2013.08.03 01:20 B C:\Users\Owner\Documents\Documents\Church\clcnet\public_html\members\system\jquery-ui\development-bundle\themes\mint-choc\images\ui-bg_gloss-wave_20_1c160d_500x100.png <-- 216.69.181.177 /public_html/members/system/jquery-ui/development-bundle/themes/mint-choc/images ui-bg_gloss-wave_20_1c160d_500x100.png
2013.08.03 01:20 B C:\Users\Owner\Documents\Documents\Church\clcnet\public_html\members\system\jquery-ui\development-bundle\themes\mint-choc\images\ui-bg_gloss-wave_25_453326_500x100.png <-- 216.69.181.177 /public_html/members/system/jquery-ui/development-bundle/themes/mint-choc/images ui-bg_gloss-wave_25_453326_500x100.png
2013.08.03 01:20 B C:\Users\Owner\Documents\Documents\Church\clcnet\public_html\members\system\jquery-ui\development-bundle\themes\mint-choc\images\ui-bg_gloss-wave_30_44372c_500x100.png <-- 216.69.181.177 /public_html/members/system/jquery-ui/development-bundle/themes/mint-choc/images ui-bg_gloss-wave_30_44372c_500x100.png
2013.08.03 01:20 B C:\Users\Owner\Documents\Documents\Church\clcnet\public_html\members\system\jquery-ui\development-bundle\themes\mint-choc\images\ui-bg_highlight-soft_20_201913_1x100.png <-- 216.69.181.177 /public_html/members/system/jquery-ui/development-bundle/themes/mint-choc/images ui-bg_highlight-soft_20_201913_1x100.png
2013.08.03 01:20 B C:\Users\Owner\Documents\Documents\Church\clcnet\public_html\members\system\jquery-ui\development-bundle\themes\mint-choc\images\ui-bg_highlight-soft_20_619226_1x100.png <-- 216.69.181.177 /public_html/members/system/jquery-ui/development-bundle/themes/mint-choc/images ui-bg_highlight-soft_20_619226_1x100.png
2013.08.03 01:20 B C:\Users\Owner\Documents\Documents\Church\clcnet\public_html\members\system\jquery-ui\development-bundle\themes\mint-choc\images\ui-bg_inset-soft_10_201913_1x100.png <-- 216.69.181.177 /public_html/members/system/jquery-ui/development-bundle/themes/mint-choc/images ui-bg_inset-soft_10_201913_1x100.png
2013.08.03 01:20 B C:\Users\Owner\Documents\Documents\Church\clcnet\public_html\members\system\jquery-ui\development-bundle\themes\mint-choc\images\ui-icons_222222_256x240.png <-- 216.69.181.177 /public_html/members/system/jquery-ui/development-bundle/themes/mint-choc/images ui-icons_222222_256x240.png
2013.08.03 01:20 B C:\Users\Owner\Documents\Documents\Church\clcnet\public_html\members\system\jquery-ui\development-bundle\themes\mint-choc\images\ui-icons_9bcc60_256x240.png <-- 216.69.181.177 /public_html/members/system/jquery-ui/development-bundle/themes/mint-choc/images ui-icons_9bcc60_256x240.png
2013.08.03 01:20 B C:\Users\Owner\Documents\Documents\Church\clcnet\public_html\members\system\jquery-ui\development-bundle\themes\mint-choc\images\ui-icons_add978_256x240.png <-- 216.69.181.177 /public_html/members/system/jquery-ui/development-bundle/themes/mint-choc/images ui-icons_add978_256x240.png
2013.08.03 01:20 B C:\Users\Owner\Documents\Documents\Church\clcnet\public_html\members\system\jquery-ui\development-bundle\themes\mint-choc\images\ui-icons_e3ddc9_256x240.png <-- 216.69.181.177 /public_html/members/system/jquery-ui/development-bundle/themes/mint-choc/images ui-icons_e3ddc9_256x240.png
2013.08.03 01:20 B C:\Users\Owner\Documents\Documents\Church\clcnet\public_html\members\system\jquery-ui\development-bundle\themes\mint-choc\images\ui-icons_f1fd86_256x240.png <-- 216.69.181.177 /public_html/members/system/jquery-ui/development-bundle/themes/mint-choc/images ui-icons_f1fd86_256x240.png
2013.08.03 01:20 B C:\Users\Owner\Documents\Documents\Church\clcnet\public_html\members\system\jquery-ui\development-bundle\themes\mint-choc\images\ui-icons_ffffff_256x240.png <-- 216.69.181.177 /public_html/members/system/jquery-ui/development-bundle/themes/mint-choc/images ui-icons_ffffff_256x240.png
2013.08.03 01:30 B C:\Users\Owner\Documents\Documents\Church\clcnet\public_html\members\system\jquery-ui\development-bundle\themes\mint-choc\images\ui-anim_basic_16x16.gif --> clc-server.org /public_html/members/system/jquery-ui/development-bundle/themes/mint-choc/images ui-anim_basic_16x16.gif
2013.08.03 01:30 B C:\Users\Owner\Documents\Documents\Church\clcnet\public_html\members\system\jquery-ui\development-bundle\themes\mint-choc\images\ui-bg_flat_0_aaaaaa_40x100.png --> clc-server.org /public_html/members/system/jquery-ui/development-bundle/themes/mint-choc/images ui-bg_flat_0_aaaaaa_40x100.png
2013.08.03 01:30 B C:\Users\Owner\Documents\Documents\Church\clcnet\public_html\members\system\jquery-ui\development-bundle\themes\mint-choc\images\ui-bg_glass_15_5f391b_1x400.png --> clc-server.org /public_html/members/system/jquery-ui/development-bundle/themes/mint-choc/images ui-bg_glass_15_5f391b_1x400.png
2013.08.03 01:31 B C:\Users\Owner\Documents\Documents\Church\clcnet\public_html\members\system\jquery-ui\development-bundle\themes\mint-choc\images\ui-bg_gloss-wave_20_1c160d_500x100.png --> clc-server.org /public_html/members/system/jquery-ui/development-bundle/themes/mint-choc/images ui-bg_gloss-wave_20_1c160d_500x100.png
2013.08.03 01:31 B C:\Users\Owner\Documents\Documents\Church\clcnet\public_html\members\system\jquery-ui\development-bundle\themes\mint-choc\images\ui-bg_gloss-wave_25_453326_500x100.png --> clc-server.org /public_html/members/system/jquery-ui/development-bundle/themes/mint-choc/images ui-bg_gloss-wave_25_453326_500x100.png
2013.08.03 01:31 B C:\Users\Owner\Documents\Documents\Church\clcnet\public_html\members\system\jquery-ui\development-bundle\themes\mint-choc\images\ui-bg_gloss-wave_30_44372c_500x100.png --> clc-server.org /public_html/members/system/jquery-ui/development-bundle/themes/mint-choc/images ui-bg_gloss-wave_30_44372c_500x100.png
2013.08.03 01:31 B C:\Users\Owner\Documents\Documents\Church\clcnet\public_html\members\system\jquery-ui\development-bundle\themes\mint-choc\images\ui-bg_highlight-soft_20_201913_1x100.png --> clc-server.org /public_html/members/system/jquery-ui/development-bundle/themes/mint-choc/images ui-bg_highlight-soft_20_201913_1x100.png
2013.08.03 01:31 B C:\Users\Owner\Documents\Documents\Church\clcnet\public_html\members\system\jquery-ui\development-bundle\themes\mint-choc\images\ui-bg_highlight-soft_20_619226_1x100.png --> clc-server.org /public_html/members/system/jquery-ui/development-bundle/themes/mint-choc/images ui-bg_highlight-soft_20_619226_1x100.png
2013.08.03 01:31 B C:\Users\Owner\Documents\Documents\Church\clcnet\public_html\members\system\jquery-ui\development-bundle\themes\mint-choc\images\ui-bg_inset-soft_10_201913_1x100.png --> clc-server.org /public_html/members/system/jquery-ui/development-bundle/themes/mint-choc/images ui-bg_inset-soft_10_201913_1x100.png
2013.08.03 01:31 B C:\Users\Owner\Documents\Documents\Church\clcnet\public_html\members\system\jquery-ui\development-bundle\themes\mint-choc\images\ui-icons_222222_256x240.png --> clc-server.org /public_html/members/system/jquery-ui/development-bundle/themes/mint-choc/images ui-icons_222222_256x240.png
2013.08.03 01:31 B C:\Users\Owner\Documents\Documents\Church\clcnet\public_html\members\system\jquery-ui\development-bundle\themes\mint-choc\images\ui-icons_9bcc60_256x240.png --> clc-server.org /public_html/members/system/jquery-ui/development-bundle/themes/mint-choc/images ui-icons_9bcc60_256x240.png
2013.08.03 01:31 B C:\Users\Owner\Documents\Documents\Church\clcnet\public_html\members\system\jquery-ui\development-bundle\themes\mint-choc\images\ui-icons_add978_256x240.png --> clc-server.org /public_html/members/system/jquery-ui/development-bundle/themes/mint-choc/images ui-icons_add978_256x240.png
2013.08.03 01:31 B C:\Users\Owner\Documents\Documents\Church\clcnet\public_html\members\system\jquery-ui\development-bundle\themes\mint-choc\images\ui-icons_e3ddc9_256x240.png --> clc-server.org /public_html/members/system/jquery-ui/development-bundle/themes/mint-choc/images ui-icons_e3ddc9_256x240.png
2013.08.03 01:31 B C:\Users\Owner\Documents\Documents\Church\clcnet\public_html\members\system\jquery-ui\development-bundle\themes\mint-choc\images\ui-icons_f1fd86_256x240.png --> clc-server.org /public_html/members/system/jquery-ui/development-bundle/themes/mint-choc/images ui-icons_f1fd86_256x240.png
2013.08.03 01:31 B C:\Users\Owner\Documents\Documents\Church\clcnet\public_html\members\system\jquery-ui\development-bundle\themes\mint-choc\images\ui-icons_ffffff_256x240.png --> clc-server.org /public_html/members/system/jquery-ui/development-bundle/themes/mint-choc/images ui-icons_ffffff_256x240.png
