2013.08.03 01:14 B C:\Users\Owner\Documents\Documents\Church\clcnet\public_html\members\system\application\views\services\delete_services.php <-- 216.69.181.177 /public_html/members/system/application/views/services delete_services.php
2013.08.03 01:14 B C:\Users\Owner\Documents\Documents\Church\clcnet\public_html\members\system\application\views\services\service.php <-- 216.69.181.177 /public_html/members/system/application/views/services service.php
2013.08.03 01:14 B C:\Users\Owner\Documents\Documents\Church\clcnet\public_html\members\system\application\views\services\view_service.php <-- 216.69.181.177 /public_html/members/system/application/views/services view_service.php
2013.08.03 01:21 B C:\Users\Owner\Documents\Documents\Church\clcnet\public_html\members\system\application\views\services\delete_services.php --> clc-server.org /public_html/members/system/application/views/services delete_services.php
2013.08.03 01:21 B C:\Users\Owner\Documents\Documents\Church\clcnet\public_html\members\system\application\views\services\service.php --> clc-server.org /public_html/members/system/application/views/services service.php
2013.08.03 01:22 B C:\Users\Owner\Documents\Documents\Church\clcnet\public_html\members\system\application\views\services\view_service.php --> clc-server.org /public_html/members/system/application/views/services view_service.php
