2013.08.03 01:12 B C:\Users\Owner\Documents\Documents\Church\clcnet\public_html\members\downloadable\config\autoload.php <-- 216.69.181.177 /public_html/members/downloadable/config autoload.php
2013.08.03 01:12 B C:\Users\Owner\Documents\Documents\Church\clcnet\public_html\members\downloadable\config\config.php <-- 216.69.181.177 /public_html/members/downloadable/config config.php
2013.08.03 01:12 B C:\Users\Owner\Documents\Documents\Church\clcnet\public_html\members\downloadable\config\constants.php <-- 216.69.181.177 /public_html/members/downloadable/config constants.php
2013.08.03 01:12 B C:\Users\Owner\Documents\Documents\Church\clcnet\public_html\members\downloadable\config\database.php <-- 216.69.181.177 /public_html/members/downloadable/config database.php
2013.08.03 01:12 B C:\Users\Owner\Documents\Documents\Church\clcnet\public_html\members\downloadable\config\doctypes.php <-- 216.69.181.177 /public_html/members/downloadable/config doctypes.php
2013.08.03 01:12 B C:\Users\Owner\Documents\Documents\Church\clcnet\public_html\members\downloadable\config\hooks.php <-- 216.69.181.177 /public_html/members/downloadable/config hooks.php
2013.08.03 01:12 B C:\Users\Owner\Documents\Documents\Church\clcnet\public_html\members\downloadable\config\mimes.php <-- 216.69.181.177 /public_html/members/downloadable/config mimes.php
2013.08.03 01:12 B C:\Users\Owner\Documents\Documents\Church\clcnet\public_html\members\downloadable\config\routes.php <-- 216.69.181.177 /public_html/members/downloadable/config routes.php
2013.08.03 01:12 B C:\Users\Owner\Documents\Documents\Church\clcnet\public_html\members\downloadable\config\smileys.php <-- 216.69.181.177 /public_html/members/downloadable/config smileys.php
2013.08.03 01:12 B C:\Users\Owner\Documents\Documents\Church\clcnet\public_html\members\downloadable\config\user_agents.php <-- 216.69.181.177 /public_html/members/downloadable/config user_agents.php
2013.08.03 01:18 B C:\Users\Owner\Documents\Documents\Church\clcnet\public_html\members\downloadable\config\autoload.php --> clc-server.org /public_html/members/downloadable/config autoload.php
2013.08.03 01:19 B C:\Users\Owner\Documents\Documents\Church\clcnet\public_html\members\downloadable\config\config.php --> clc-server.org /public_html/members/downloadable/config config.php
2013.08.03 01:19 B C:\Users\Owner\Documents\Documents\Church\clcnet\public_html\members\downloadable\config\constants.php --> clc-server.org /public_html/members/downloadable/config constants.php
2013.08.03 01:19 B C:\Users\Owner\Documents\Documents\Church\clcnet\public_html\members\downloadable\config\database.php --> clc-server.org /public_html/members/downloadable/config database.php
2013.08.03 01:19 B C:\Users\Owner\Documents\Documents\Church\clcnet\public_html\members\downloadable\config\doctypes.php --> clc-server.org /public_html/members/downloadable/config doctypes.php
2013.08.03 01:19 B C:\Users\Owner\Documents\Documents\Church\clcnet\public_html\members\downloadable\config\hooks.php --> clc-server.org /public_html/members/downloadable/config hooks.php
2013.08.03 01:19 B C:\Users\Owner\Documents\Documents\Church\clcnet\public_html\members\downloadable\config\mimes.php --> clc-server.org /public_html/members/downloadable/config mimes.php
2013.08.03 01:19 B C:\Users\Owner\Documents\Documents\Church\clcnet\public_html\members\downloadable\config\routes.php --> clc-server.org /public_html/members/downloadable/config routes.php
2013.08.03 01:19 B C:\Users\Owner\Documents\Documents\Church\clcnet\public_html\members\downloadable\config\smileys.php --> clc-server.org /public_html/members/downloadable/config smileys.php
2013.08.03 01:19 B C:\Users\Owner\Documents\Documents\Church\clcnet\public_html\members\downloadable\config\user_agents.php --> clc-server.org /public_html/members/downloadable/config user_agents.php
