2013.08.03 01:19 B C:\Users\Owner\Documents\Documents\Church\clcnet\public_html\members\system\jquery-ui\development-bundle\demos\sortable\connect-lists-through-tabs.html <-- 216.69.181.177 /public_html/members/system/jquery-ui/development-bundle/demos/sortable connect-lists-through-tabs.html
2013.08.03 01:19 B C:\Users\Owner\Documents\Documents\Church\clcnet\public_html\members\system\jquery-ui\development-bundle\demos\sortable\connect-lists.html <-- 216.69.181.177 /public_html/members/system/jquery-ui/development-bundle/demos/sortable connect-lists.html
2013.08.03 01:19 B C:\Users\Owner\Documents\Documents\Church\clcnet\public_html\members\system\jquery-ui\development-bundle\demos\sortable\default.html <-- 216.69.181.177 /public_html/members/system/jquery-ui/development-bundle/demos/sortable default.html
2013.08.03 01:19 B C:\Users\Owner\Documents\Documents\Church\clcnet\public_html\members\system\jquery-ui\development-bundle\demos\sortable\delay-start.html <-- 216.69.181.177 /public_html/members/system/jquery-ui/development-bundle/demos/sortable delay-start.html
2013.08.03 01:19 B C:\Users\Owner\Documents\Documents\Church\clcnet\public_html\members\system\jquery-ui\development-bundle\demos\sortable\display-grid.html <-- 216.69.181.177 /public_html/members/system/jquery-ui/development-bundle/demos/sortable display-grid.html
2013.08.03 01:19 B C:\Users\Owner\Documents\Documents\Church\clcnet\public_html\members\system\jquery-ui\development-bundle\demos\sortable\empty-lists.html <-- 216.69.181.177 /public_html/members/system/jquery-ui/development-bundle/demos/sortable empty-lists.html
2013.08.03 01:19 B C:\Users\Owner\Documents\Documents\Church\clcnet\public_html\members\system\jquery-ui\development-bundle\demos\sortable\index.html <-- 216.69.181.177 /public_html/members/system/jquery-ui/development-bundle/demos/sortable index.html
2013.08.03 01:19 B C:\Users\Owner\Documents\Documents\Church\clcnet\public_html\members\system\jquery-ui\development-bundle\demos\sortable\items.html <-- 216.69.181.177 /public_html/members/system/jquery-ui/development-bundle/demos/sortable items.html
2013.08.03 01:19 B C:\Users\Owner\Documents\Documents\Church\clcnet\public_html\members\system\jquery-ui\development-bundle\demos\sortable\placeholder.html <-- 216.69.181.177 /public_html/members/system/jquery-ui/development-bundle/demos/sortable placeholder.html
2013.08.03 01:19 B C:\Users\Owner\Documents\Documents\Church\clcnet\public_html\members\system\jquery-ui\development-bundle\demos\sortable\portlets.html <-- 216.69.181.177 /public_html/members/system/jquery-ui/development-bundle/demos/sortable portlets.html
2013.08.03 01:29 B C:\Users\Owner\Documents\Documents\Church\clcnet\public_html\members\system\jquery-ui\development-bundle\demos\sortable\connect-lists-through-tabs.html --> clc-server.org /public_html/members/system/jquery-ui/development-bundle/demos/sortable connect-lists-through-tabs.html
2013.08.03 01:29 B C:\Users\Owner\Documents\Documents\Church\clcnet\public_html\members\system\jquery-ui\development-bundle\demos\sortable\connect-lists.html --> clc-server.org /public_html/members/system/jquery-ui/development-bundle/demos/sortable connect-lists.html
2013.08.03 01:29 B C:\Users\Owner\Documents\Documents\Church\clcnet\public_html\members\system\jquery-ui\development-bundle\demos\sortable\default.html --> clc-server.org /public_html/members/system/jquery-ui/development-bundle/demos/sortable default.html
2013.08.03 01:29 B C:\Users\Owner\Documents\Documents\Church\clcnet\public_html\members\system\jquery-ui\development-bundle\demos\sortable\delay-start.html --> clc-server.org /public_html/members/system/jquery-ui/development-bundle/demos/sortable delay-start.html
2013.08.03 01:29 B C:\Users\Owner\Documents\Documents\Church\clcnet\public_html\members\system\jquery-ui\development-bundle\demos\sortable\display-grid.html --> clc-server.org /public_html/members/system/jquery-ui/development-bundle/demos/sortable display-grid.html
2013.08.03 01:29 B C:\Users\Owner\Documents\Documents\Church\clcnet\public_html\members\system\jquery-ui\development-bundle\demos\sortable\empty-lists.html --> clc-server.org /public_html/members/system/jquery-ui/development-bundle/demos/sortable empty-lists.html
2013.08.03 01:29 B C:\Users\Owner\Documents\Documents\Church\clcnet\public_html\members\system\jquery-ui\development-bundle\demos\sortable\index.html --> clc-server.org /public_html/members/system/jquery-ui/development-bundle/demos/sortable index.html
2013.08.03 01:29 B C:\Users\Owner\Documents\Documents\Church\clcnet\public_html\members\system\jquery-ui\development-bundle\demos\sortable\items.html --> clc-server.org /public_html/members/system/jquery-ui/development-bundle/demos/sortable items.html
2013.08.03 01:29 B C:\Users\Owner\Documents\Documents\Church\clcnet\public_html\members\system\jquery-ui\development-bundle\demos\sortable\placeholder.html --> clc-server.org /public_html/members/system/jquery-ui/development-bundle/demos/sortable placeholder.html
2013.08.03 01:29 B C:\Users\Owner\Documents\Documents\Church\clcnet\public_html\members\system\jquery-ui\development-bundle\demos\sortable\portlets.html --> clc-server.org /public_html/members/system/jquery-ui/development-bundle/demos/sortable portlets.html
