2013.08.03 01:13 B C:\Users\Owner\Documents\Documents\Church\clcnet\public_html\members\system\application\models\forms.php <-- 216.69.181.177 /public_html/members/system/application/models forms.php
2013.08.03 01:13 B C:\Users\Owner\Documents\Documents\Church\clcnet\public_html\members\system\application\models\index.html <-- 216.69.181.177 /public_html/members/system/application/models index.html
2013.08.03 01:13 B C:\Users\Owner\Documents\Documents\Church\clcnet\public_html\members\system\application\models\index_reports.php <-- 216.69.181.177 /public_html/members/system/application/models index_reports.php
2013.08.03 01:13 B C:\Users\Owner\Documents\Documents\Church\clcnet\public_html\members\system\application\models\indexreports.php <-- 216.69.181.177 /public_html/members/system/application/models indexreports.php
2013.08.03 01:13 B C:\Users\Owner\Documents\Documents\Church\clcnet\public_html\members\system\application\models\mreports.php <-- 216.69.181.177 /public_html/members/system/application/models mreports.php
2013.08.03 01:13 B C:\Users\Owner\Documents\Documents\Church\clcnet\public_html\members\system\application\models\reports.php <-- 216.69.181.177 /public_html/members/system/application/models reports.php
2013.08.03 01:14 B C:\Users\Owner\Documents\Documents\Church\clcnet\public_html\members\system\application\models\site.php <-- 216.69.181.177 /public_html/members/system/application/models site.php
2013.08.03 01:14 B C:\Users\Owner\Documents\Documents\Church\clcnet\public_html\members\system\application\models\upgrademodel.php <-- 216.69.181.177 /public_html/members/system/application/models upgrademodel.php
2013.08.03 01:21 B C:\Users\Owner\Documents\Documents\Church\clcnet\public_html\members\system\application\models\forms.php --> clc-server.org /public_html/members/system/application/models forms.php
2013.08.03 01:21 B C:\Users\Owner\Documents\Documents\Church\clcnet\public_html\members\system\application\models\index.html --> clc-server.org /public_html/members/system/application/models index.html
2013.08.03 01:21 B C:\Users\Owner\Documents\Documents\Church\clcnet\public_html\members\system\application\models\index_reports.php --> clc-server.org /public_html/members/system/application/models index_reports.php
2013.08.03 01:21 B C:\Users\Owner\Documents\Documents\Church\clcnet\public_html\members\system\application\models\indexreports.php --> clc-server.org /public_html/members/system/application/models indexreports.php
2013.08.03 01:21 B C:\Users\Owner\Documents\Documents\Church\clcnet\public_html\members\system\application\models\mreports.php --> clc-server.org /public_html/members/system/application/models mreports.php
2013.08.03 01:21 B C:\Users\Owner\Documents\Documents\Church\clcnet\public_html\members\system\application\models\reports.php --> clc-server.org /public_html/members/system/application/models reports.php
2013.08.03 01:21 B C:\Users\Owner\Documents\Documents\Church\clcnet\public_html\members\system\application\models\site.php --> clc-server.org /public_html/members/system/application/models site.php
2013.08.03 01:21 B C:\Users\Owner\Documents\Documents\Church\clcnet\public_html\members\system\application\models\upgrademodel.php --> clc-server.org /public_html/members/system/application/models upgrademodel.php
