2013.08.03 01:21 B C:\Users\Owner\Documents\Documents\Church\clcnet\public_html\members\system\jquery-ui\development-bundle\ui\i18n\jquery-ui-i18n.js <-- 216.69.181.177 /public_html/members/system/jquery-ui/development-bundle/ui/i18n jquery-ui-i18n.js
2013.08.03 01:21 B C:\Users\Owner\Documents\Documents\Church\clcnet\public_html\members\system\jquery-ui\development-bundle\ui\i18n\jquery.ui.datepicker-af.js <-- 216.69.181.177 /public_html/members/system/jquery-ui/development-bundle/ui/i18n jquery.ui.datepicker-af.js
2013.08.03 01:21 B C:\Users\Owner\Documents\Documents\Church\clcnet\public_html\members\system\jquery-ui\development-bundle\ui\i18n\jquery.ui.datepicker-ar.js <-- 216.69.181.177 /public_html/members/system/jquery-ui/development-bundle/ui/i18n jquery.ui.datepicker-ar.js
2013.08.03 01:22 B C:\Users\Owner\Documents\Documents\Church\clcnet\public_html\members\system\jquery-ui\development-bundle\ui\i18n\jquery.ui.datepicker-az.js <-- 216.69.181.177 /public_html/members/system/jquery-ui/development-bundle/ui/i18n jquery.ui.datepicker-az.js
2013.08.03 01:22 B C:\Users\Owner\Documents\Documents\Church\clcnet\public_html\members\system\jquery-ui\development-bundle\ui\i18n\jquery.ui.datepicker-bg.js <-- 216.69.181.177 /public_html/members/system/jquery-ui/development-bundle/ui/i18n jquery.ui.datepicker-bg.js
2013.08.03 01:22 B C:\Users\Owner\Documents\Documents\Church\clcnet\public_html\members\system\jquery-ui\development-bundle\ui\i18n\jquery.ui.datepicker-bs.js <-- 216.69.181.177 /public_html/members/system/jquery-ui/development-bundle/ui/i18n jquery.ui.datepicker-bs.js
2013.08.03 01:22 B C:\Users\Owner\Documents\Documents\Church\clcnet\public_html\members\system\jquery-ui\development-bundle\ui\i18n\jquery.ui.datepicker-ca.js <-- 216.69.181.177 /public_html/members/system/jquery-ui/development-bundle/ui/i18n jquery.ui.datepicker-ca.js
2013.08.03 01:22 B C:\Users\Owner\Documents\Documents\Church\clcnet\public_html\members\system\jquery-ui\development-bundle\ui\i18n\jquery.ui.datepicker-cs.js <-- 216.69.181.177 /public_html/members/system/jquery-ui/development-bundle/ui/i18n jquery.ui.datepicker-cs.js
2013.08.03 01:22 B C:\Users\Owner\Documents\Documents\Church\clcnet\public_html\members\system\jquery-ui\development-bundle\ui\i18n\jquery.ui.datepicker-da.js <-- 216.69.181.177 /public_html/members/system/jquery-ui/development-bundle/ui/i18n jquery.ui.datepicker-da.js
2013.08.03 01:22 B C:\Users\Owner\Documents\Documents\Church\clcnet\public_html\members\system\jquery-ui\development-bundle\ui\i18n\jquery.ui.datepicker-de.js <-- 216.69.181.177 /public_html/members/system/jquery-ui/development-bundle/ui/i18n jquery.ui.datepicker-de.js
2013.08.03 01:22 B C:\Users\Owner\Documents\Documents\Church\clcnet\public_html\members\system\jquery-ui\development-bundle\ui\i18n\jquery.ui.datepicker-el.js <-- 216.69.181.177 /public_html/members/system/jquery-ui/development-bundle/ui/i18n jquery.ui.datepicker-el.js
2013.08.03 01:22 B C:\Users\Owner\Documents\Documents\Church\clcnet\public_html\members\system\jquery-ui\development-bundle\ui\i18n\jquery.ui.datepicker-en-GB.js <-- 216.69.181.177 /public_html/members/system/jquery-ui/development-bundle/ui/i18n jquery.ui.datepicker-en-GB.js
2013.08.03 01:22 B C:\Users\Owner\Documents\Documents\Church\clcnet\public_html\members\system\jquery-ui\development-bundle\ui\i18n\jquery.ui.datepicker-eo.js <-- 216.69.181.177 /public_html/members/system/jquery-ui/development-bundle/ui/i18n jquery.ui.datepicker-eo.js
2013.08.03 01:22 B C:\Users\Owner\Documents\Documents\Church\clcnet\public_html\members\system\jquery-ui\development-bundle\ui\i18n\jquery.ui.datepicker-es.js <-- 216.69.181.177 /public_html/members/system/jquery-ui/development-bundle/ui/i18n jquery.ui.datepicker-es.js
2013.08.03 01:22 B C:\Users\Owner\Documents\Documents\Church\clcnet\public_html\members\system\jquery-ui\development-bundle\ui\i18n\jquery.ui.datepicker-et.js <-- 216.69.181.177 /public_html/members/system/jquery-ui/development-bundle/ui/i18n jquery.ui.datepicker-et.js
2013.08.03 01:22 B C:\Users\Owner\Documents\Documents\Church\clcnet\public_html\members\system\jquery-ui\development-bundle\ui\i18n\jquery.ui.datepicker-eu.js <-- 216.69.181.177 /public_html/members/system/jquery-ui/development-bundle/ui/i18n jquery.ui.datepicker-eu.js
2013.08.03 01:22 B C:\Users\Owner\Documents\Documents\Church\clcnet\public_html\members\system\jquery-ui\development-bundle\ui\i18n\jquery.ui.datepicker-fa.js <-- 216.69.181.177 /public_html/members/system/jquery-ui/development-bundle/ui/i18n jquery.ui.datepicker-fa.js
2013.08.03 01:22 B C:\Users\Owner\Documents\Documents\Church\clcnet\public_html\members\system\jquery-ui\development-bundle\ui\i18n\jquery.ui.datepicker-fi.js <-- 216.69.181.177 /public_html/members/system/jquery-ui/development-bundle/ui/i18n jquery.ui.datepicker-fi.js
2013.08.03 01:22 B C:\Users\Owner\Documents\Documents\Church\clcnet\public_html\members\system\jquery-ui\development-bundle\ui\i18n\jquery.ui.datepicker-fo.js <-- 216.69.181.177 /public_html/members/system/jquery-ui/development-bundle/ui/i18n jquery.ui.datepicker-fo.js
2013.08.03 01:22 B C:\Users\Owner\Documents\Documents\Church\clcnet\public_html\members\system\jquery-ui\development-bundle\ui\i18n\jquery.ui.datepicker-fr-CH.js <-- 216.69.181.177 /public_html/members/system/jquery-ui/development-bundle/ui/i18n jquery.ui.datepicker-fr-CH.js
2013.08.03 01:22 B C:\Users\Owner\Documents\Documents\Church\clcnet\public_html\members\system\jquery-ui\development-bundle\ui\i18n\jquery.ui.datepicker-fr.js <-- 216.69.181.177 /public_html/members/system/jquery-ui/development-bundle/ui/i18n jquery.ui.datepicker-fr.js
2013.08.03 01:22 B C:\Users\Owner\Documents\Documents\Church\clcnet\public_html\members\system\jquery-ui\development-bundle\ui\i18n\jquery.ui.datepicker-he.js <-- 216.69.181.177 /public_html/members/system/jquery-ui/development-bundle/ui/i18n jquery.ui.datepicker-he.js
2013.08.03 01:22 B C:\Users\Owner\Documents\Documents\Church\clcnet\public_html\members\system\jquery-ui\development-bundle\ui\i18n\jquery.ui.datepicker-hr.js <-- 216.69.181.177 /public_html/members/system/jquery-ui/development-bundle/ui/i18n jquery.ui.datepicker-hr.js
2013.08.03 01:22 B C:\Users\Owner\Documents\Documents\Church\clcnet\public_html\members\system\jquery-ui\development-bundle\ui\i18n\jquery.ui.datepicker-hu.js <-- 216.69.181.177 /public_html/members/system/jquery-ui/development-bundle/ui/i18n jquery.ui.datepicker-hu.js
2013.08.03 01:22 B C:\Users\Owner\Documents\Documents\Church\clcnet\public_html\members\system\jquery-ui\development-bundle\ui\i18n\jquery.ui.datepicker-hy.js <-- 216.69.181.177 /public_html/members/system/jquery-ui/development-bundle/ui/i18n jquery.ui.datepicker-hy.js
2013.08.03 01:22 B C:\Users\Owner\Documents\Documents\Church\clcnet\public_html\members\system\jquery-ui\development-bundle\ui\i18n\jquery.ui.datepicker-id.js <-- 216.69.181.177 /public_html/members/system/jquery-ui/development-bundle/ui/i18n jquery.ui.datepicker-id.js
2013.08.03 01:22 B C:\Users\Owner\Documents\Documents\Church\clcnet\public_html\members\system\jquery-ui\development-bundle\ui\i18n\jquery.ui.datepicker-is.js <-- 216.69.181.177 /public_html/members/system/jquery-ui/development-bundle/ui/i18n jquery.ui.datepicker-is.js
2013.08.03 01:22 B C:\Users\Owner\Documents\Documents\Church\clcnet\public_html\members\system\jquery-ui\development-bundle\ui\i18n\jquery.ui.datepicker-it.js <-- 216.69.181.177 /public_html/members/system/jquery-ui/development-bundle/ui/i18n jquery.ui.datepicker-it.js
2013.08.03 01:22 B C:\Users\Owner\Documents\Documents\Church\clcnet\public_html\members\system\jquery-ui\development-bundle\ui\i18n\jquery.ui.datepicker-ja.js <-- 216.69.181.177 /public_html/members/system/jquery-ui/development-bundle/ui/i18n jquery.ui.datepicker-ja.js
2013.08.03 01:22 B C:\Users\Owner\Documents\Documents\Church\clcnet\public_html\members\system\jquery-ui\development-bundle\ui\i18n\jquery.ui.datepicker-ko.js <-- 216.69.181.177 /public_html/members/system/jquery-ui/development-bundle/ui/i18n jquery.ui.datepicker-ko.js
2013.08.03 01:22 B C:\Users\Owner\Documents\Documents\Church\clcnet\public_html\members\system\jquery-ui\development-bundle\ui\i18n\jquery.ui.datepicker-lt.js <-- 216.69.181.177 /public_html/members/system/jquery-ui/development-bundle/ui/i18n jquery.ui.datepicker-lt.js
2013.08.03 01:22 B C:\Users\Owner\Documents\Documents\Church\clcnet\public_html\members\system\jquery-ui\development-bundle\ui\i18n\jquery.ui.datepicker-lv.js <-- 216.69.181.177 /public_html/members/system/jquery-ui/development-bundle/ui/i18n jquery.ui.datepicker-lv.js
2013.08.03 01:31 B C:\Users\Owner\Documents\Documents\Church\clcnet\public_html\members\system\jquery-ui\development-bundle\ui\i18n\jquery-ui-i18n.js --> clc-server.org /public_html/members/system/jquery-ui/development-bundle/ui/i18n jquery-ui-i18n.js
2013.08.03 01:31 B C:\Users\Owner\Documents\Documents\Church\clcnet\public_html\members\system\jquery-ui\development-bundle\ui\i18n\jquery.ui.datepicker-af.js --> clc-server.org /public_html/members/system/jquery-ui/development-bundle/ui/i18n jquery.ui.datepicker-af.js
2013.08.03 01:31 B C:\Users\Owner\Documents\Documents\Church\clcnet\public_html\members\system\jquery-ui\development-bundle\ui\i18n\jquery.ui.datepicker-ar.js --> clc-server.org /public_html/members/system/jquery-ui/development-bundle/ui/i18n jquery.ui.datepicker-ar.js
2013.08.03 01:31 B C:\Users\Owner\Documents\Documents\Church\clcnet\public_html\members\system\jquery-ui\development-bundle\ui\i18n\jquery.ui.datepicker-az.js --> clc-server.org /public_html/members/system/jquery-ui/development-bundle/ui/i18n jquery.ui.datepicker-az.js
2013.08.03 01:31 B C:\Users\Owner\Documents\Documents\Church\clcnet\public_html\members\system\jquery-ui\development-bundle\ui\i18n\jquery.ui.datepicker-bg.js --> clc-server.org /public_html/members/system/jquery-ui/development-bundle/ui/i18n jquery.ui.datepicker-bg.js
2013.08.03 01:31 B C:\Users\Owner\Documents\Documents\Church\clcnet\public_html\members\system\jquery-ui\development-bundle\ui\i18n\jquery.ui.datepicker-bs.js --> clc-server.org /public_html/members/system/jquery-ui/development-bundle/ui/i18n jquery.ui.datepicker-bs.js
2013.08.03 01:31 B C:\Users\Owner\Documents\Documents\Church\clcnet\public_html\members\system\jquery-ui\development-bundle\ui\i18n\jquery.ui.datepicker-ca.js --> clc-server.org /public_html/members/system/jquery-ui/development-bundle/ui/i18n jquery.ui.datepicker-ca.js
2013.08.03 01:31 B C:\Users\Owner\Documents\Documents\Church\clcnet\public_html\members\system\jquery-ui\development-bundle\ui\i18n\jquery.ui.datepicker-cs.js --> clc-server.org /public_html/members/system/jquery-ui/development-bundle/ui/i18n jquery.ui.datepicker-cs.js
2013.08.03 01:31 B C:\Users\Owner\Documents\Documents\Church\clcnet\public_html\members\system\jquery-ui\development-bundle\ui\i18n\jquery.ui.datepicker-da.js --> clc-server.org /public_html/members/system/jquery-ui/development-bundle/ui/i18n jquery.ui.datepicker-da.js
2013.08.03 01:31 B C:\Users\Owner\Documents\Documents\Church\clcnet\public_html\members\system\jquery-ui\development-bundle\ui\i18n\jquery.ui.datepicker-de.js --> clc-server.org /public_html/members/system/jquery-ui/development-bundle/ui/i18n jquery.ui.datepicker-de.js
2013.08.03 01:31 B C:\Users\Owner\Documents\Documents\Church\clcnet\public_html\members\system\jquery-ui\development-bundle\ui\i18n\jquery.ui.datepicker-el.js --> clc-server.org /public_html/members/system/jquery-ui/development-bundle/ui/i18n jquery.ui.datepicker-el.js
2013.08.03 01:31 B C:\Users\Owner\Documents\Documents\Church\clcnet\public_html\members\system\jquery-ui\development-bundle\ui\i18n\jquery.ui.datepicker-en-GB.js --> clc-server.org /public_html/members/system/jquery-ui/development-bundle/ui/i18n jquery.ui.datepicker-en-GB.js
2013.08.03 01:31 B C:\Users\Owner\Documents\Documents\Church\clcnet\public_html\members\system\jquery-ui\development-bundle\ui\i18n\jquery.ui.datepicker-eo.js --> clc-server.org /public_html/members/system/jquery-ui/development-bundle/ui/i18n jquery.ui.datepicker-eo.js
2013.08.03 01:31 B C:\Users\Owner\Documents\Documents\Church\clcnet\public_html\members\system\jquery-ui\development-bundle\ui\i18n\jquery.ui.datepicker-es.js --> clc-server.org /public_html/members/system/jquery-ui/development-bundle/ui/i18n jquery.ui.datepicker-es.js
2013.08.03 01:31 B C:\Users\Owner\Documents\Documents\Church\clcnet\public_html\members\system\jquery-ui\development-bundle\ui\i18n\jquery.ui.datepicker-et.js --> clc-server.org /public_html/members/system/jquery-ui/development-bundle/ui/i18n jquery.ui.datepicker-et.js
2013.08.03 01:31 B C:\Users\Owner\Documents\Documents\Church\clcnet\public_html\members\system\jquery-ui\development-bundle\ui\i18n\jquery.ui.datepicker-eu.js --> clc-server.org /public_html/members/system/jquery-ui/development-bundle/ui/i18n jquery.ui.datepicker-eu.js
2013.08.03 01:31 B C:\Users\Owner\Documents\Documents\Church\clcnet\public_html\members\system\jquery-ui\development-bundle\ui\i18n\jquery.ui.datepicker-fa.js --> clc-server.org /public_html/members/system/jquery-ui/development-bundle/ui/i18n jquery.ui.datepicker-fa.js
2013.08.03 01:31 B C:\Users\Owner\Documents\Documents\Church\clcnet\public_html\members\system\jquery-ui\development-bundle\ui\i18n\jquery.ui.datepicker-fi.js --> clc-server.org /public_html/members/system/jquery-ui/development-bundle/ui/i18n jquery.ui.datepicker-fi.js
2013.08.03 01:31 B C:\Users\Owner\Documents\Documents\Church\clcnet\public_html\members\system\jquery-ui\development-bundle\ui\i18n\jquery.ui.datepicker-fo.js --> clc-server.org /public_html/members/system/jquery-ui/development-bundle/ui/i18n jquery.ui.datepicker-fo.js
2013.08.03 01:31 B C:\Users\Owner\Documents\Documents\Church\clcnet\public_html\members\system\jquery-ui\development-bundle\ui\i18n\jquery.ui.datepicker-fr-CH.js --> clc-server.org /public_html/members/system/jquery-ui/development-bundle/ui/i18n jquery.ui.datepicker-fr-CH.js
2013.08.03 01:31 B C:\Users\Owner\Documents\Documents\Church\clcnet\public_html\members\system\jquery-ui\development-bundle\ui\i18n\jquery.ui.datepicker-fr.js --> clc-server.org /public_html/members/system/jquery-ui/development-bundle/ui/i18n jquery.ui.datepicker-fr.js
2013.08.03 01:31 B C:\Users\Owner\Documents\Documents\Church\clcnet\public_html\members\system\jquery-ui\development-bundle\ui\i18n\jquery.ui.datepicker-he.js --> clc-server.org /public_html/members/system/jquery-ui/development-bundle/ui/i18n jquery.ui.datepicker-he.js
2013.08.03 01:31 B C:\Users\Owner\Documents\Documents\Church\clcnet\public_html\members\system\jquery-ui\development-bundle\ui\i18n\jquery.ui.datepicker-hr.js --> clc-server.org /public_html/members/system/jquery-ui/development-bundle/ui/i18n jquery.ui.datepicker-hr.js
2013.08.03 01:31 B C:\Users\Owner\Documents\Documents\Church\clcnet\public_html\members\system\jquery-ui\development-bundle\ui\i18n\jquery.ui.datepicker-hu.js --> clc-server.org /public_html/members/system/jquery-ui/development-bundle/ui/i18n jquery.ui.datepicker-hu.js
2013.08.03 01:31 B C:\Users\Owner\Documents\Documents\Church\clcnet\public_html\members\system\jquery-ui\development-bundle\ui\i18n\jquery.ui.datepicker-hy.js --> clc-server.org /public_html/members/system/jquery-ui/development-bundle/ui/i18n jquery.ui.datepicker-hy.js
2013.08.03 01:31 B C:\Users\Owner\Documents\Documents\Church\clcnet\public_html\members\system\jquery-ui\development-bundle\ui\i18n\jquery.ui.datepicker-id.js --> clc-server.org /public_html/members/system/jquery-ui/development-bundle/ui/i18n jquery.ui.datepicker-id.js
2013.08.03 01:31 B C:\Users\Owner\Documents\Documents\Church\clcnet\public_html\members\system\jquery-ui\development-bundle\ui\i18n\jquery.ui.datepicker-is.js --> clc-server.org /public_html/members/system/jquery-ui/development-bundle/ui/i18n jquery.ui.datepicker-is.js
2013.08.03 01:31 B C:\Users\Owner\Documents\Documents\Church\clcnet\public_html\members\system\jquery-ui\development-bundle\ui\i18n\jquery.ui.datepicker-it.js --> clc-server.org /public_html/members/system/jquery-ui/development-bundle/ui/i18n jquery.ui.datepicker-it.js
2013.08.03 01:31 B C:\Users\Owner\Documents\Documents\Church\clcnet\public_html\members\system\jquery-ui\development-bundle\ui\i18n\jquery.ui.datepicker-ja.js --> clc-server.org /public_html/members/system/jquery-ui/development-bundle/ui/i18n jquery.ui.datepicker-ja.js
2013.08.03 01:31 B C:\Users\Owner\Documents\Documents\Church\clcnet\public_html\members\system\jquery-ui\development-bundle\ui\i18n\jquery.ui.datepicker-ko.js --> clc-server.org /public_html/members/system/jquery-ui/development-bundle/ui/i18n jquery.ui.datepicker-ko.js
2013.08.03 01:31 B C:\Users\Owner\Documents\Documents\Church\clcnet\public_html\members\system\jquery-ui\development-bundle\ui\i18n\jquery.ui.datepicker-lt.js --> clc-server.org /public_html/members/system/jquery-ui/development-bundle/ui/i18n jquery.ui.datepicker-lt.js
2013.08.03 01:31 B C:\Users\Owner\Documents\Documents\Church\clcnet\public_html\members\system\jquery-ui\development-bundle\ui\i18n\jquery.ui.datepicker-lv.js --> clc-server.org /public_html/members/system/jquery-ui/development-bundle/ui/i18n jquery.ui.datepicker-lv.js
