2013.08.03 01:18 B C:\Users\Owner\Documents\Documents\Church\clcnet\public_html\members\system\jquery-ui\development-bundle\demos\hide\default.html <-- 216.69.181.177 /public_html/members/system/jquery-ui/development-bundle/demos/hide default.html
2013.08.03 01:18 B C:\Users\Owner\Documents\Documents\Church\clcnet\public_html\members\system\jquery-ui\development-bundle\demos\hide\index.html <-- 216.69.181.177 /public_html/members/system/jquery-ui/development-bundle/demos/hide index.html
2013.08.03 01:28 B C:\Users\Owner\Documents\Documents\Church\clcnet\public_html\members\system\jquery-ui\development-bundle\demos\hide\default.html --> clc-server.org /public_html/members/system/jquery-ui/development-bundle/demos/hide default.html
2013.08.03 01:28 B C:\Users\Owner\Documents\Documents\Church\clcnet\public_html\members\system\jquery-ui\development-bundle\demos\hide\index.html --> clc-server.org /public_html/members/system/jquery-ui/development-bundle/demos/hide index.html
